{"name":"Consume API con el metodo GET","id":"api;consume-api-con-el-metodo-get","testSteps":[{"number":1,"description":"Dado que el usuario se conecta a la  API","duration":134,"startTime":"2021-08-03T20:39:17.240-05:00[America/Bogota]","result":"SUCCESS","precondition":false,"level":0},{"number":2,"description":"Cuando consume el metodo get","duration":3436,"startTime":"2021-08-03T20:39:17.376-05:00[America/Bogota]","result":"SUCCESS","precondition":false,"level":0,"children":[{"number":3,"description":"actor consume get method","duration":3329,"startTime":"2021-08-03T20:39:17.483-05:00[America/Bogota]","result":"SUCCESS","precondition":false,"level":1,"children":[{"number":4,"description":"actor executes a GET on the resource api/users?page\u003d2","duration":3261,"startTime":"2021-08-03T20:39:17.545-05:00[America/Bogota]","result":"SUCCESS","precondition":false,"level":2,"children":[{"number":5,"description":"GET https://reqres.in/api/users?page\u003d2\r","duration":0,"startTime":"2021-08-03T20:39:20.806-05:00[America/Bogota]","result":"SUCCESS","restQuery":{"method":"GET","path":"https://reqres.in/api/users?page\u003d2\r","content":"\r","contentType":"application/json","requestHeaders":"Accept\u003d*/*\r\n\t\t\t\tContent-Type\u003dapplication/json; charset\u003dUTF-8\r","requestCookies":"\r","responseHeaders":"Date: Wed, 04 Aug 2021 01:39:20 GMT\r\nContent-Type: application/json; charset\u003dutf-8\r\nTransfer-Encoding: chunked\r\nConnection: keep-alive\r\nx-powered-by: Express\r\naccess-control-allow-origin: *\r\netag: W/\"406-ut0vzoCuidvyMf8arZpMpJ6ZRDw\"\r\nvia: 1.1 vegur\r\nCache-Control: max-age\u003d14400\r\nCF-Cache-Status: HIT\r\nAge: 7007\r\nExpect-CT: max-age\u003d604800, report-uri\u003d\"https://report-uri.cloudflare.com/cdn-cgi/beacon/expect-ct\"\r\nReport-To: {\"endpoints\":[{\"url\":\"https:\\/\\/a.nel.cloudflare.com\\/report\\/v3?s\u003d2X34OrL50ETY3ccUFEMCKiQyKDiK%2FRDBVaSQPpWwl5gvfYvfv7SFQxpy8EHHiFPhS5HNkGa3t3OJa33VcKzFI9yYmHhR8ivkQPaNwZT4JNNPwoNLkuBEJ70DVTo%3D\"}],\"group\":\"cf-nel\",\"max_age\":604800}\r\nNEL: {\"report_to\":\"cf-nel\",\"max_age\":604800}\r\nVary: Accept-Encoding\r\nServer: cloudflare\r\nCF-RAY: 67941245af20f371-ATL\r\nContent-Encoding: gzip\r\nalt-svc: h3-27\u003d\":443\"; ma\u003d86400, h3-28\u003d\":443\"; ma\u003d86400, h3-29\u003d\":443\"; ma\u003d86400, h3\u003d\":443\"; ma\u003d86400\r","responseCookies":"\r","responseBody":"{\n    \"page\": 2,\n    \"per_page\": 6,\n    \"total\": 12,\n    \"total_pages\": 2,\n    \"data\": [\n        {\n            \"id\": 7,\n            \"email\": \"michael.lawson@reqres.in\",\n            \"first_name\": \"Michael\",\n            \"last_name\": \"Lawson\",\n            \"avatar\": \"https://reqres.in/img/faces/7-image.jpg\"\n        },\n        {\n            \"id\": 8,\n            \"email\": \"lindsay.ferguson@reqres.in\",\n            \"first_name\": \"Lindsay\",\n            \"last_name\": \"Ferguson\",\n            \"avatar\": \"https://reqres.in/img/faces/8-image.jpg\"\n        },\n        {\n            \"id\": 9,\n            \"email\": \"tobias.funke@reqres.in\",\n            \"first_name\": \"Tobias\",\n            \"last_name\": \"Funke\",\n            \"avatar\": \"https://reqres.in/img/faces/9-image.jpg\"\n        },\n        {\n            \"id\": 10,\n            \"email\": \"byron.fields@reqres.in\",\n            \"first_name\": \"Byron\",\n            \"last_name\": \"Fields\",\n            \"avatar\": \"https://reqres.in/img/faces/10-image.jpg\"\n        },\n        {\n            \"id\": 11,\n            \"email\": \"george.edwards@reqres.in\",\n            \"first_name\": \"George\",\n            \"last_name\": \"Edwards\",\n            \"avatar\": \"https://reqres.in/img/faces/11-image.jpg\"\n        },\n        {\n            \"id\": 12,\n            \"email\": \"rachel.howell@reqres.in\",\n            \"first_name\": \"Rachel\",\n            \"last_name\": \"Howell\",\n            \"avatar\": \"https://reqres.in/img/faces/12-image.jpg\"\n        }\n    ],\n    \"support\": {\n        \"url\": \"https://reqres.in/#support-heading\",\n        \"text\": \"To keep ReqRes free, contributions towards server costs are appreciated!\"\n    }\n}","statusCode":200},"precondition":false,"level":3}]}]}]},{"number":6,"description":"Entonces deberia ver el codigo de respuesta 200","duration":100,"startTime":"2021-08-03T20:39:20.812-05:00[America/Bogota]","result":"SUCCESS","precondition":false,"level":0,"children":[{"number":7,"description":"Then last response status code$$ lambda$122/1646425085","duration":3,"startTime":"2021-08-03T20:39:20.909-05:00[America/Bogota]","result":"SUCCESS","precondition":false,"level":1}]},{"number":8,"description":"Entonces verifica que exista el id \"8\"","duration":302,"startTime":"2021-08-03T20:39:20.912-05:00[America/Bogota]","result":"SUCCESS","precondition":false,"level":0,"children":[{"number":9,"description":"Then el campo data.id should be a string containing \u00278\u0027","duration":294,"startTime":"2021-08-03T20:39:20.920-05:00[America/Bogota]","result":"SUCCESS","precondition":false,"level":1}]}],"userStory":{"id":"api","storyName":"API","path":"src/test/resources/features/callservices.feature","narrative":"  Yo, como usuario\n  Necesito consumir los recursos de la API\n  Para actualizar un registro, buscar un registro, crear un registro","type":"feature"},"featureTag":{"name":"Features/API","type":"feature","displayName":"Features/API"},"title":"Consume API con el metodo GET","tags":[{"name":"API","type":"feature","displayName":"API"},{"name":"ConsumeAPI","type":"tag","displayName":"ConsumeAPI"}],"startTime":"2021-08-03T20:39:17.122-05:00[America/Bogota]","duration":4092,"projectKey":"","manual":false,"testSource":"Cucumber","actors":[{"name":"actor","can":["browse the web","call an API at https://reqres.in/"]}],"result":"SUCCESS"}